elevator_sim/nc/elevator_tb.vcd
$date
    May 18, 2019  23:37:11
$end
$version
    TOOL:	ncsim	15.20-s010
$end
$timescale
    1 ns
$end

$scope module elevator_tb $end
$var reg       1 !    clk  $end
$var reg       1 "    reset  $end
$var reg       1 #    open_btn  $end
$var reg       8 $    btn_in [7:0] $end
$var reg       7 %    btn_up_out [6:0] $end
$var reg       7 &    btn_down_out [7:1] $end
$var wire      2 '    engine [1:0] $end
$var wire      2 (    door [1:0] $end
$var wire      3 )    level_display [2:0] $end
$upscope $end

$enddefinitions $end
$dumpvars
0!
x"
0#
b0 $
b0 %
b0 &
bx '
bx (
bx )
$end
#5
1!
0"
b0 (
b0 '
#10
0!
#15
1!
#20
0!
#25
1!
#30
0!
#35
1!
#40
0!
#45
1!
#50
0!
#55
1!
#60
0!
#65
1!
#70
0!
#75
1!
#80
0!
#85
1!
#90
0!
#95
1!
#100
1"
0!
#105
1!
#110
0!
#115
1!
b0 )
#120
0!
#125
1!
b1 (
#130
0!
#135
1!
#140
0!
#145
1!
#150
0!
#155
1!
#160
0!
#165
1!
#170
0!
#175
1!
#180
0!
#185
1!
#190
0!
#195
1!
#200
0!
#205
1!
#210
0!
#215
1!
#220
0!
#225
1!
#230
0!
#235
1!
#240
0!
#245
1!
#250
0!
#255
1!
b0 (
#260
0!
#265
1!
#270
0!
#275
1!
#280
0!
#285
1!
#290
0!
#295
1!
#300
b1000000 $
0!
#305
1!
#310
b0 $
0!
#315
1!
#320
0!
#325
1!
#330
0!
#335
1!
#340
0!
#345
1!
#350
0!
#355
1!
#360
0!
#365
1!
#370
0!
#375
1!
#380
0!
#385
1!
#390
0!
#395
1!
#400
0!
#405
1!
#410
0!
#415
1!
#420
0!
#425
1!
#430
0!
#435
1!
#440
0!
#445
1!
#450
0!
#455
1!
#460
0!
#465
1!
#470
0!
#475
1!
#480
0!
#485
1!
#490
0!
#495
1!
#500
0!
#505
1!
b10 (
#510
0!
#515
1!
#520
0!
#525
1!
#530
0!
#535
1!
#540
0!
#545
1!
#550
0!
#555
1!
#560
0!
#565
1!
#570
0!
#575
1!
#580
0!
#585
1!
#590
0!
#595
1!
#600
0!
#605
1!
#610
0!
#615
1!
#620
0!
#625
1!
#630
0!
#635
1!
b0 (
#640
0!
#645
1!
#650
0!
#655
1!
b10 '
#660
0!
#665
1!
#670
0!
#675
1!
#680
0!
#685
1!
#690
0!
#695
1!
#700
0!
#705
1!
#710
0!
#715
1!
#720
0!
#725
1!
#730
0!
#735
1!
#740
0!
#745
1!
#750
0!
#755
1!
#760
0!
#765
1!
#770
0!
#775
1!
#780
0!
#785
1!
#790
0!
#795
1!
b1 )
#800
0!
#805
1!
#810
0!
#815
1!
#820
0!
#825
1!
#830
0!
#835
1!
#840
0!
#845
1!
#850
0!
#855
1!
#860
0!
#865
1!
#870
0!
#875
1!
#880
0!
#885
1!
#890
0!
#895
1!
#900
0!
#905
1!
b10 )
#910
0!
#915
1!
#920
0!
#925
1!
#930
0!
#935
1!
#940
0!
#945
1!
#950
0!
#955
1!
#960
0!
#965
1!
#970
0!
#975
1!
#980
0!
#985
1!
#990
0!
#995
1!
#1000
0!
#1005
1!
#1010
0!
#1015
1!
b11 )
#1020
0!
#1025
1!
#1030
0!
#1035
1!
#1040
0!
#1045
1!
#1050
0!
#1055
1!
#1060
0!
#1065
1!
#1070
0!
#1075
1!
#1080
0!
#1085
1!
#1090
0!
#1095
1!
#1100
0!
#1105
1!
#1110
0!
#1115
1!
#1120
0!
#1125
1!
b100 )
#1130
0!
#1135
1!
#1140
0!
#1145
1!
#1150
0!
#1155
1!
#1160
0!
#1165
1!
#1170
0!
#1175
1!
#1180
0!
#1185
1!
#1190
0!
#1195
1!
#1200
0!
#1205
1!
#1210
0!
#1215
1!
#1220
0!
#1225
1!
#1230
0!
#1235
1!
b101 )
#1240
0!
#1245
1!
#1250
0!
#1255
1!
#1260
0!
#1265
1!
#1270
0!
#1275
1!
#1280
0!
#1285
1!
#1290
0!
#1295
1!
#1300
0!
#1305
1!
#1310
0!
#1315
1!
#1320
0!
#1325
1!
#1330
0!
#1335
1!
b0 '
#1340
0!
#1345
1!
b110 )
#1350
0!
#1355
1!
b1 (
#1360
0!
#1365
1!
#1370
0!
#1375
1!
#1380
0!
#1385
1!
#1390
0!
#1395
1!
#1400
0!
#1405
1!
#1410
0!
#1415
1!
#1420
0!
#1425
1!
#1430
0!
#1435
1!
#1440
0!
#1445
1!
#1450
0!
#1455
1!
#1460
0!
#1465
1!
#1470
0!
#1475
1!
#1480
0!
#1485
1!
b0 (
